{
  "dependencies": {
    "mssql1": {
      "type": "mssql",
      "connectionId": "DefaultConnection"
    },
    "mssql2": {
      "type": "mssql",
      "connectionId": "BadMovieDBContextConnection"
    }
  }
}